{"stories":[{"story":{"uuid":"89c9d39a-10aa-498a-b3ae-5664d814c904","title":"Samara Klar on Campaign 2022 and Arizona","date-of-publication":"2022-11-03T00:00:00-07:00","url-canonical":"https://www.c-span.org/video/?523945-6%2Fwashington-journal-samara-klar-discusses-issues-motivating-voters-battleground-state-arizona","terms":"College of Social and Behavioral Sciences, Experts, Social Sciences and Education","source-canonical":"\n  C-SPAN"}},{"story":{"uuid":"172c05a0-cbed-4405-a976-d30aa89d7eab","title":"Rejoice in the end of Daylight Saving Time","date-of-publication":"2022-11-03T00:00:00-07:00","url-canonical":"https://www.theatlantic.com/health/archive/2022/11/daylight-saving-time-ending-25-hour-sunday/671984/","terms":"Experts, Health","source-canonical":"\n  The Atlantic"}},{"story":{"uuid":"6478a694-4ee8-44e6-a888-bbd2e62b518f","title":"University of Arizona is getting $150 million in COVID-19 relief money for a bioscience center","date-of-publication":"2022-11-03T00:00:00-07:00","url-canonical":"https://www.azcentral.com/story/news/local/arizona-education/2022/11/03/ua-research-center-getting-150-million-covid-19-relief/8248926001/","terms":"College of Medicine - Phoenix, COVID-19, Campus News, Health","source-canonical":"\n  The Arizona Republic"}},{"story":{"uuid":"82f62649-251b-419c-bd16-97dc4d47366a","title":"Dozens of species were assumed to be mute \u2013 until they were recorded making sounds","date-of-publication":"2022-11-03T00:00:00-07:00","url-canonical":"https://www.npr.org/2022/11/03/1133418579/turtles-sound-acoustic-communicate","terms":"Experts, Science and Technology","source-canonical":"\n  NPR"}},{"story":{"uuid":"35b68497-fc61-43cd-a92e-a50715bb264e","title":"NASA has major plans for asteroids. Could Psyche\u2019s delay change them?","date-of-publication":"2022-11-03T00:00:00-07:00","url-canonical":"https://www.popsci.com/science/psyche-janus-delay-asteroid-science/","terms":"Astronomy, Experts, Space, Science and Technology","source-canonical":"\n  Popular Science"}},{"story":{"uuid":"2a6a1dde-893a-4f8e-ab6e-0093463f9bf4","title":"The man beat cancer years ago. Why was there a mass in his lung?","date-of-publication":"2022-11-02T00:00:00-07:00","url-canonical":"https://www.nytimes.com/2022/11/02/magazine/coccidioidomycosis-valley-fever-diagnosis.html","terms":"Experts, Valley fever, Health","source-canonical":"\n  The New York Times"}},{"story":{"uuid":"ab639af5-1d61-41ca-9a84-adc1f88c7a20","title":"Why humor and levity are important, according to experts","date-of-publication":"2022-11-01T00:00:00-07:00","url-canonical":"https://www.nytimes.com/2022/11/01/well/mind/humor-benefits.html","terms":"Experts, Social Sciences and Education","source-canonical":"\n  The New York Times"}},{"story":{"uuid":"927a95c3-4cd6-4cf9-ad49-55006b41dcc3","title":"What Elon Musk's Twitter acquisition means for the midterm elections","date-of-publication":"2022-11-01T00:00:00-07:00","url-canonical":"https://abcnews.go.com/Business/elon-musks-twitter-acquisition-means-midterm-elections/story?id=92436831","terms":"College of Social and Behavioral Sciences, Experts, News, Science and Technology","source-canonical":"\n  ABC News"}},{"story":{"uuid":"3d9f1894-3be9-4f39-8d67-4bfdcd4bca13","title":"How to move on from the debate over the origins of the pandemic","date-of-publication":"2022-11-01T00:00:00-07:00","url-canonical":"https://www.bloomberg.com/news/articles/2022-11-01/where-did-covid-start-how-to-move-on-from-debate-over-origins","terms":"College of Science, COVID-19, Experts, News, Health, Science and Technology","source-canonical":"\n  Bloomberg News"}},{"story":{"uuid":"26cc907a-51ec-4970-a607-28b91869ef90","title":"Scientists find nine 'most liveable' Martian caves for future astronauts to live in","date-of-publication":"2022-11-01T00:00:00-07:00","url-canonical":"https://www.independent.co.uk/space/mars-caves-future-astronauts-shelter-b2214936.html","terms":"Astronomy, College of Science, Experts, Exploration, Grand Challenges, Lunar and Planetary Laboratory, News, Science, Space, Science and Technology","source-canonical":"\n  The Independent (UK)"}},{"story":{"uuid":"39c00113-fa42-439a-99d9-32bb9f45a750","title":"COVID-19 can interfere with your period in many ways. Here's how","date-of-publication":"2022-10-31T00:00:00-07:00","url-canonical":"https://www.nationalgeographic.co.uk/science-and-technology/2022/10/covid-19-can-interfere-with-your-period-in-many-ways-heres-how","terms":"Adaptation, College of Public Health, COVID-19, Experts, News, Public, Research, Health, Science and Technology","source-canonical":"\n  National Geographic"}},{"story":{"uuid":"a0681c38-7734-43a0-91ce-645cecc5243d","title":"New museum to unveil first exhibits, talk by famed civil rights activist","date-of-publication":"2022-10-30T00:00:00-07:00","url-canonical":"https://tucson.com/news/local/new-museum-to-unveil-first-exhibits-talk-by-famed-civil-rights-activist/article_e846f61e-548c-11ed-9648-9ff6be1eb7f9.html","terms":"Arts and Humanities, Compassion, Diversity, Education, Inclusion, Integrity, Public, Campus News, Social Sciences and Education","source-canonical":"\n  Arizona Daily Star,"}},{"story":{"uuid":"7d820dbf-246a-42e2-ac52-d60267b0bc86","title":"In a single week in America, 4 communities confronted the aftermath of different school shootings. Then, shots rang out in another school","date-of-publication":"2022-10-30T00:00:00-07:00","url-canonical":"https://www.cnn.com/2022/10/30/us/school-shootings-one-week-america-ctrp/index.html","terms":"Experts, Health, Social Sciences and Education","source-canonical":"\n  CNN"}},{"story":{"uuid":"72d7e43a-d157-4303-b051-be8fbcf33588","title":" Thousands of mosques targeted as Hindu nationalists try to rewrite India's history","date-of-publication":"2022-10-30T00:00:00-07:00","url-canonical":"https://www.theguardian.com/world/2022/oct/30/thousands-of-mosques-targeted-as-hindu-nationalists-try-to-rewrite-indias-history","terms":"College of Social and Behavioral Sciences, Experts, International, Social Sciences and Education","source-canonical":"\n  The Guardian (UK)"}},{"story":{"uuid":"ba0fe904-0a62-41cc-aa7c-0329c71e33bc","title":"Forget free coffee. What matters is if workers feel returning is worth it.","date-of-publication":"2022-10-29T00:00:00-07:00","url-canonical":"https://www.nytimes.com/2022/10/29/technology/return-to-office-employee-satisfaction.html","terms":"Eller College of Management, Experts, Business and Law","source-canonical":"\n  The New York Times"}},{"story":{"uuid":"39392fdb-5b47-40fa-8544-d220938b22f8","title":"Please stop saying these 7 things to breastfeeding moms","date-of-publication":"2022-10-28T00:00:00-07:00","url-canonical":"https://www.huffpost.com/entry/stop-saying-to-breastfeeding-moms_l_630fc143e4b07744a2fcc5c8","terms":"Eller College of Management, Experts, Business and Law","source-canonical":"\n  The Huffington Post"}},{"story":{"uuid":"6129e411-9046-4578-b62d-a4656dd0f17c","title":"Altar outside Harvey Park home celebrates Dia de los Muertos","date-of-publication":"2022-10-28T00:00:00-07:00","url-canonical":"https://www.axios.com/local/denver/2022/10/28/neighborhood-altar-celebrates-dia-de-los-muertos","terms":"Arts and Humanities, College of Social and Behavioral Sciences, Hispanic-Serving Institution, Inclusion, Social Sciences and Education","source-canonical":"\n  Axios"}},{"story":{"uuid":"3d00a9ca-eac7-4e4e-9f77-ad4ca0a01a0d","title":"Senate GOP report argues lab leak theory is most likely origin of COVID","date-of-publication":"2022-10-27T00:00:00-07:00","url-canonical":"https://www.washingtonpost.com/science/2022/10/27/covid-lab-leak-theory-origin/","terms":"College of Science, COVID-19, Experts, Grand Challenges, Health, Science and Technology","source-canonical":"\n  The Washington Post "}},{"story":{"uuid":"25abd0e6-2e9b-4f1c-a3d4-80df52df1bff","title":"Episode 224: Prof. Scott Cederburg: long-horizon losses in stocks, bonds, and bills","date-of-publication":"2022-10-27T00:00:00-07:00","url-canonical":"http://rationalreminder.ca/podcast/224","terms":"Eller College of Management, Experts, News, Business and Law","source-canonical":"\n  The Rational Reminder podcast"}},{"story":{"uuid":"eb63d8a6-a29b-43af-b691-6d1da965aa35","title":"Reproductive rights, climate change on the minds of Gen Z Latino voters","date-of-publication":"2022-10-27T00:00:00-07:00","url-canonical":"https://www.msnbc.com/morning-joe/watch/reproductive-rights-climate-change-on-the-minds-of-gen-z-latino-voters-151701061739","terms":"Diversity, Hispanic Heritage Month, Hispanic-Serving Institution, Inclusion, LGBTQIA+, Students, Campus News, Teaching and Students","source-canonical":"\n  MSNBC &quot;Morning Joe&quot;"}},{"story":{"uuid":"8d4223cd-1b97-4f62-b8c4-38910d01422d","title":"Medieval skeletons reveal how the bubonic plague influenced human DNA","date-of-publication":"2022-10-27T00:00:00-07:00","url-canonical":"https://www.smithsonianmag.com/smart-news/medieval-skeletons-reveal-how-the-bubonic-plague-influenced-human-dna-180980977/","terms":"Adaptation, Anthropology, College of Science, Experts, News","source-canonical":"\n  Smithsonian Magazine"}},{"story":{"uuid":"8423445e-e8f1-4081-a833-202677f72f08","title":"How a museum is protecting the $100M de Kooning painting 37 years after it was stolen","date-of-publication":"2022-10-26T00:00:00-07:00","url-canonical":"http://www.usatoday.com/story/news/nation/2022/10/26/100-m-de-kooning-painting-now-under-constant-watch/10607316002/","terms":"Arts and Humanities, College of Fine Arts, The Arts, Campus News","source-canonical":"\n  USA Today"}},{"story":{"uuid":"f63f1d52-0037-4f7a-b860-2d7f7634436b","title":"'Virtually every child' to face frequent heat waves by 2050, UNICEF says","date-of-publication":"2022-10-26T00:00:00-07:00","url-canonical":"https://www.washingtonpost.com/climate-environment/2022/10/26/extreme-heat-wave-children-2050-unicef/","terms":"Adaptation, College of Science, News, Sustainability, Science and Technology","source-canonical":"\n  The Washington Post"}},{"story":{"uuid":"02ef7f39-d263-4eae-9768-5698b645eac8","title":"Pan de Muerto, bread of the dead, sustains tradition","date-of-publication":"2022-10-26T00:00:00-07:00","url-canonical":"http://www.sandiegouniontribune.com/lifestyle/food-and-cooking/story/2022-10-26/to-feed-the-dead-you-first-need-pan-de-muerto","terms":"Arts and Humanities, College of Social and Behavioral Sciences, Experts, Hispanic Heritage Month, Inclusion","source-canonical":"\n  The San Diego Union-Tribune"}},{"story":{"uuid":"d1a60bbb-8a82-432a-a5a1-f2623f201359","title":"Updated COVID-19 vaccines boost protection, but may not beat original formula against BA.4 and BA.5, early studies suggest","date-of-publication":"2022-10-26T00:00:00-07:00","url-canonical":"https://www.cnn.com/2022/10/26/health/updated-boosters-omicron-imprint/index.html","terms":"Adaptation, College of Science, COVID-19, COVID-19 vaccine, Experts, Faculty, Grand Challenges, News, Public, Research, Health","source-canonical":"\n  CNN"}},{"story":{"uuid":"7172e1ee-0177-4138-96e5-ae833e67a0a5","title":"Media literacy: the election version","date-of-publication":"2022-10-25T00:00:00-07:00","url-canonical":"https://www.nativeamericacalling.com/tuesday-october-25-2022-media-literacy-the-election-version/","terms":"Diversity, Education, Experts, Integrity, News, Outreach, Business and Law, Social Sciences and Education","source-canonical":"\n  Native America Calling podcast"}},{"story":{"uuid":"fb0f877c-0234-4fe7-b2d9-d4e0e37f0333","title":"Why do people have slips of the tongue","date-of-publication":"2022-10-24T00:00:00-07:00","url-canonical":"https://theconversation.com/why-do-people-have-slips-of-the-tongue-191383","terms":"College of Social and Behavioral Sciences, Experts, Social Sciences and Education","source-canonical":"\n  The Conversation"}},{"story":{"uuid":"3c0c86ca-6703-4e0d-94fa-891e83904326","title":"What is the oldest tree in the world? It's nearly 5,000 years old","date-of-publication":"2022-10-21T00:00:00-07:00","url-canonical":"https://www.usatoday.com/story/news/2022/10/21/what-is-oldest-tree-world-years/8181369001/","terms":"Experts, Laboratory of Tree-Ring Research, Science and Technology","source-canonical":"\n  USA Today"}},{"story":{"uuid":"394f4b06-f79e-4751-b56e-89aceacab3b8","title":"Bread, pastrami and cocktails: Museum shows focus on food","date-of-publication":"2022-10-21T00:00:00-07:00","url-canonical":"https://www.nytimes.com/2022/10/21/arts/design/museum-food-exhibitions.html","terms":"Arts and Humanities, College of Fine Arts","source-canonical":"\n  The New York Times"}},{"story":{"uuid":"874feac2-812b-4fa2-8c77-949b59a06a67","title":"Think your pet acts weird? Meet these furry pals.","date-of-publication":"2022-10-21T00:00:00-07:00","url-canonical":"https://www.washingtonpost.com/wellness/2022/10/21/pets-weird-behaviors/","terms":"Anthropology, Experts, Social Sciences and Education","source-canonical":"\n  The Washington Post"}}],"pager":{"pages":265,"page":0,"count":7936,"limit":30}}